…
The dataset contains information on 1794 movies released between 1970
and 2013. However we will focus our analysis on movies released between
1990 and 2013.

``` r
bechdel90_13 <- bechdel %>% 
  filter(between(year, 1990, 2013))

bechdel90_13
```

    ## # A tibble: 1,615 x 15
    ##     year imdb   title    test   clean_test binary budget domgross intgross code 
    ##    <int> <chr>  <chr>    <chr>  <ord>      <chr>   <int>    <dbl>    <dbl> <chr>
    ##  1  2013 tt171… 21 & Ov… notalk notalk     FAIL   1.3 e7 25682380   4.22e7 2013…
    ##  2  2012 tt134… Dredd 3D ok-di… ok         PASS   4.5 e7 13414714   4.09e7 2012…
    ##  3  2013 tt202… 12 Year… notal… notalk     FAIL   2   e7 53107035   1.59e8 2013…
    ##  4  2013 tt127… 2 Guns   notalk notalk     FAIL   6.1 e7 75612460   1.32e8 2013…
    ##  5  2013 tt045… 42       men    men        FAIL   4   e7 95020213   9.50e7 2013…
    ##  6  2013 tt133… 47 Ronin men    men        FAIL   2.25e8 38362475   1.46e8 2013…
    ##  7  2013 tt160… A Good … notalk notalk     FAIL   9.2 e7 67349198   3.04e8 2013…
    ##  8  2013 tt219… About T… ok-di… ok         PASS   1.2 e7 15323921   8.73e7 2013…
    ##  9  2013 tt181… Admissi… ok     ok         PASS   1.3 e7 18007317   1.80e7 2013…
    ## 10  2013 tt181… After E… notalk notalk     FAIL   1.3 e8 60522097   2.44e8 2013…
    ## # … with 1,605 more rows, and 5 more variables: budget_2013 <int>,
    ## #   domgross_2013 <dbl>, intgross_2013 <dbl>, period_code <int>,
    ## #   decade_code <int>
…
``` r
bechdel90_13 <- bechdel90_13 %>%
  mutate(roi = (intgross_2013 + domgross_2013 - budget_2013) / budget_2013)
```

Now we can see which movies have the highest return on investment.

``` r
bechdel90_13 %>%
  arrange(desc(roi)) %>% 
  select(title, clean_test, binary, roi, budget_2013, intgross_2013)
```

    ## # A tibble: 1,615 x 6
    ##    title                   clean_test binary   roi budget_2013 intgross_2013
    ##    <chr>                   <ord>      <chr>  <dbl>       <int>         <dbl>
    ##  1 Paranormal Activity     dubious    FAIL    670.      505595     218173082
    ##  2 The Blair Witch Project ok         PASS    647.      839077     347238122
    ##  3 El Mariachi             nowomen    FAIL    582.       11622       3390310
    ##  4 Clerks.                 notalk     FAIL    257.       42435       6120440
    ##  5 In the Company of Men   notalk     FAIL    230.       36281       4184879
    ##  6 Napoleon Dynamite       notalk     FAIL    226.      493277      56878201
    ##  7 Once                    men        FAIL    189.      173369      21956864
    ##  8 The Devil Inside        ok         PASS    154.     1014639     103248087
    ##  9 Primer                  notalk     FAIL    141.        8632        697797
    ## 10 Fireproof               men        FAIL    133.      541128      36226687
    ## # … with 1,605 more rows
…
